<svg xmlns="http://www.w3.org/2000/svg" width="40.242" height="40.043" viewBox="0 0 40.242 40.043">
  <g id="checkmark" transform="translate(0.242)">
    <g id="Rectangle_121" data-name="Rectangle 121" transform="translate(0.001)" fill="#fff" stroke="#2bbf16" stroke-width="3">
      <rect width="40" height="40" rx="20" stroke="none"/>
      <rect x="1.5" y="1.5" width="37" height="37" rx="18.5" fill="none"/>
    </g>
    <path id="check-circle-solid_1_" data-name="check-circle-solid (1)" d="M40.572,20.308A20.121,20.121,0,1,1,20.451.33,20.05,20.05,0,0,1,40.572,20.308ZM18.124,30.886,33.052,16.064a1.282,1.282,0,0,0,0-1.823l-1.836-1.823a1.3,1.3,0,0,0-1.836,0L17.206,24.507l-5.684-5.644a1.3,1.3,0,0,0-1.836,0L7.85,20.686a1.282,1.282,0,0,0,0,1.823l8.438,8.378a1.3,1.3,0,0,0,1.836,0Z" transform="translate(-0.572 -0.244)" fill="#2bbf16"/>
  </g>
</svg>
